Gender Equality DA
…
enroll.by.country %>% arrange(desc(prop_F))

## # A tibble: 40 x 4
## # Groups:   country [40]
##    country          count_F  count_M prop_F
##    <fct>              <dbl>    <dbl>  <dbl>
##  1 UK              2753284. 4180070.  0.397
##  2 Italy           1806129  3041631   0.373
##  3 Poland          1670414  2892568   0.366
##  4 New Zealand      247759.  429199.  0.366
##  5 Iceland           14743    25623   0.365
##  6 Sweden           433030   805598   0.350
##  7 Canada          1353269. 2587940.  0.343
##  8 Denmark          230172   441195   0.343
##  9 Slovak Republic  146149   288224   0.336
## 10 Estonia           59106   117410   0.335
## #  with 30 more rows
…
